Data Tales | Quick Plot: TidyTuesday 2022 Week 2 – Seth Kasowitz
…
No bees in 2019Q2. That seems unlikely.

colony |>
  filter(year == 2019, months == 'April-June')

# A tibble: 47 × 10
    year months     state       colony_n colony_max colony_lost colony_lost_pct
   <dbl> <chr>      <chr>          <dbl>      <dbl>       <dbl>           <dbl>
 1  2019 April-June Alabama           NA         NA          NA              NA
 2  2019 April-June Arizona           NA         NA          NA              NA
 3  2019 April-June Arkansas          NA         NA          NA              NA
 4  2019 April-June California        NA         NA          NA              NA
 5  2019 April-June Colorado          NA         NA          NA              NA
 6  2019 April-June Connecticut       NA         NA          NA              NA
 7  2019 April-June Florida           NA         NA          NA              NA
 8  2019 April-June Georgia           NA         NA          NA              NA
 9  2019 April-June Hawaii            NA         NA          NA              NA
10  2019 April-June Idaho             NA         NA          NA              NA
# ℹ 37 more rows
# ℹ 3 more variables: colony_added <dbl>, colony_reno <dbl>,
#   colony_reno_pct <dbl>
…
Rows: 7,332
Columns: 5
$ year       <dbl> 2015, 2015, 2015, 2015, 2015, 2015, 2015, 2015, 2015, 2015,…
$ months     <chr> "January-March", "January-March", "January-March", "January…
$ state      <chr> "Alabama", "Alabama", "Alabama", "Alabama", "Alabama", "Ala…
$ stressor   <chr> "Varroa mites", "Other pests/parasites", "Disesases", "Pest…
$ stress_pct <dbl> 10.0, 5.4, NA, 2.2, 9.1, 9.4, 26.9, 20.5, 0.1, NA, 1.8, 3.1…

And checking 2019Q2 in this data we find the same issue!

stressor |>
  filter(year == 2019, months == 'April-June')

# A tibble: 282 × 5
    year months     state   stressor              stress_pct
   <dbl> <chr>      <chr>   <chr>                      <dbl>
 1  2019 April-June Alabama Varroa mites                  NA
 2  2019 April-June Alabama Other pests/parasites         NA
 3  2019 April-June Alabama Disesases                     NA
 4  2019 April-June Alabama Pesticides                    NA
 5  2019 April-June Alabama Other                         NA
 6  2019 April-June Alabama Unknown                       NA
 7  2019 April-June Arizona Varroa mites                  NA
 8  2019 April-June Arizona Other pests/parasites         NA
 9  2019 April-June Arizona Disesases                     NA
10  2019 April-June Arizona Pesticides                    NA
# ℹ 272 more rows
…
